IP_ID, Latitude, Longitude, Radius, Number of times Entered, AverageTime
4, 5.77741,-0.077909, 0.4, 0, 0
5, 5.655299,-0.083007, 3.3, 4, 255000
3, 5.669047,-0.225339, 0.5, 22, 2727
1, 5.703612,-0.168119, 0.8, 21, 171428
2, 5.66628,-0.175994, 1.5, 42, 314285
6, 5.759586,-0.220304, 3.5, 23, 31805217
